{
    "/js/all.js": "/js/all.js",
    "/css/app.css": "/css/app.css",
    "/administration/css/admin.css": "/administration/css/admin.css",
    "/administration/js/all.js": "/administration/js/all.js"
}